{
    "$schema": "http://json-schema.org/schema#",
    "type": "object",
    "properties": {
        "settings": {
            "type": "object",
            "properties": {
                "image": {
                    "type": "string",
                    "description": "The image used for installing the request registry",
                    "default": "registry.gitlab.com/open-forms/request-registry"
                },
                "version": {
                    "type": "string",
                    "description": "The versionthat you want to install",
                    "default": "latest"
                },
                "databaseUrl": {
                    "type": "string",
                    "description": "The connection string for the database, if left blanck the installation wil spin up its own database",
                    "default": ""
                },
                "replicaCount": {
                    "type": "integer",
                    "description": "The connection string for the database, if left empty the installation wil spin up its own database",
                    "default": 1
                }
            }
        },
        "ingress": {
            "type": "object",
            "form": true,
            "title": "Ingress Configuration",
            "properties": {
                "enabled": {
                    "type": "boolean",
                    "form": true,
                    "title": "Use a custom hostname",
                    "description": "Enable the ingress resource that allows you to access the Form Catalouge installation."
                },
                "hostname": {
                    "type": "string",
                    "form": true,
                    "title": "Hostname",
                    "description":" a DNS-1123 subdomain must consist of lower case alphanumeric characters, '-' or '.', and must start and end with an alphanumeric character (e.g. 'example.com', regex used for validation is '[a-z0-9]([-a-z0-9]*[a-z0-9])?(\\.[a-z0-9]([-a-z0-9]*[a-z0-9])?)*')",
                    "hidden": {
                        "value": false,
                        "path": "ingress/enabled"
                    }
                },
                "certManager": {
                    "type": "boolean",
                    "form": true,
                    "title": "Enable CertManager",
                    "description": "This will add the required annotation for CertManager to add certificates.",
                    "hidden": {
                        "value": false,
                        "path": "ingress/enabled"
                    }
                },
                "tls": {
                    "type": "boolean",
                    "form": true,
                    "title": "Create a TLS secret",
                    "hidden": {
                        "value": false,
                        "path": "ingress/enabled"
                    }
                }
            }
        }
    }
}
